<svg width="11" height="11" viewBox="0 0 11 11" fill="none" xmlns="http://www.w3.org/2000/svg">
<path fill-rule="evenodd" clip-rule="evenodd" d="M4.99968 8.99936C7.20864 8.99936 8.99936 7.20864 8.99936 4.99968C8.99936 2.79072 7.20864 1 4.99968 1C2.79072 1 1 2.79072 1 4.99968C1 7.20864 2.79072 8.99936 4.99968 8.99936Z" stroke="white" stroke-linecap="round" stroke-linejoin="round"/>
<path d="M9.99953 10L7.82471 7.8252" stroke="white" stroke-linecap="round" stroke-linejoin="round"/>
</svg>
